{
  "name": "critical_bug",
  "do": "<ul><li>To represent a critical bug fix or detection.</li></ul>",
  "dont": "<ul><li>To display alerts or errors.</li></ul>",
  "tags": [
    "bug"
  ],
  "category": "development",
  "type": "static"
}
