{
  "name": "templates",
  "do": "Use it to represent a mockup or template of any type: configuration, web UI, etc.",
  "dont": "Don't use it for images.",
  "tags": [
    "atomic"
  ],
  "category": "design",
  "type": "static"
}
